<?xml version="1.0" encoding="utf-8"?>
<!-- Generator: Adobe Illustrator 20.1.0, SVG Export Plug-In . SVG Version: 6.00 Build 0)  -->
<svg version="1.1" id="Layer_1" xmlns="http://www.w3.org/2000/svg" xmlns:xlink="http://www.w3.org/1999/xlink" x="0px" y="0px"
	 viewBox="0 0 512 512" style="enable-background:new 0 0 512 512;" xml:space="preserve">
<style type="text/css">
	.st0{fill:#5E5E5E;}
	.st1{fill:#5E5E5E;stroke:#FFFFFF;stroke-width:10;stroke-miterlimit:10;}
	.st2{fill:#FFFFFF;}
</style>
<g>
	<path class="st0" d="M328.918,463.709l65.905-65.906h-65.905V463.709z M328.918,463.709"/>
	<path class="st0" d="M394.824,364.85V24.339H43.328v439.37h252.638V364.85H394.824z M109.233,112.213h219.685v32.953H109.233
		V112.213z M109.233,178.118h219.685v32.953H109.233V178.118z M109.233,244.024h219.685v32.953H109.233V244.024z M201.221,400.356
		l-3.883,19.416l-32.401-32.401l-32.405,32.401l-3.883-19.416l-19.416-3.883l26.791-26.789c-2.574-4.698-4.039-10.084-4.039-15.817
		c0-18.198,14.749-32.953,32.953-32.953c18.198,0,32.953,14.755,32.953,32.953c0,5.734-1.469,11.124-4.044,15.817l26.791,26.789
		L201.221,400.356z M201.221,400.356"/>
</g>
<g>
	<g>
		<path class="st1" d="M339.588,319.344c-56.833,0-108.374,31.094-146.405,81.601c-3.103,4.136-3.103,9.918,0,14.057
			c38.031,50.563,89.572,81.66,146.405,81.66c56.836,0,108.375-31.097,146.406-81.601c3.105-4.139,3.105-9.918,0-14.057
			C447.963,350.437,396.424,319.344,339.588,319.344L339.588,319.344z M343.664,470.435c-37.725,2.374-68.881-28.723-66.507-66.511
			c1.946-31.156,27.198-56.408,58.354-58.354c37.728-2.374,68.881,28.72,66.51,66.511
			C400.013,443.174,374.761,468.426,343.664,470.435L343.664,470.435z"/>
	</g>
</g>
<circle class="st2" cx="341.199" cy="408.96" r="64.609"/>
<path class="st0" d="M342.951,436.201c-16.47,1.035-30.076-12.524-28.993-28.991c0.838-13.607,11.883-24.602,25.49-25.491
	c16.47-1.035,30.076,12.524,28.993,28.991C367.552,424.368,356.509,435.363,342.951,436.201L342.951,436.201z"/>
</svg>
