<?xml version="1.0" encoding="utf-8"?>
<!-- Generator: Adobe Illustrator 20.1.0, SVG Export Plug-In . SVG Version: 6.00 Build 0)  -->
<svg version="1.1" id="Layer_1" xmlns="http://www.w3.org/2000/svg" xmlns:xlink="http://www.w3.org/1999/xlink" x="0px" y="0px"
	 viewBox="0 0 512 512" enable-background="new 0 0 512 512" xml:space="preserve">
<g>
	<path fill="#5E5E5E" d="M368.395,209.889h-85.177V291.2h-52.83v-81.311h-87.423c-11.323,0-20.575,9.165-20.575,20.575v225.431
		c0,11.319,9.165,20.576,20.575,20.576h225.431c11.323,0,20.575-9.165,20.575-20.576V230.464
		C388.97,219.141,379.806,209.889,368.395,209.889L368.395,209.889z M368.395,209.889"/>
	<path fill="#5E5E5E" d="M250.336,165.951c2.781,3.505,8.085,3.505,10.872,0l44.472-56.515c3.593-4.492,0.361-11.139-5.392-11.139
		h-17.609V40.342c0-2.514-1.974-4.492-4.492-4.492h-44.925c-2.515,0-4.492,1.979-4.492,4.492v57.863h-17.518
		c-5.751,0-8.985,6.65-5.392,11.142L250.336,165.951z M250.336,165.951"/>
</g>
</svg>
